10:13:47:03
11:29:41:06
11:59:40:07
19:02:54:14
01:13:42:15
06:28:22:19
06:52:40:21
21:52:48:02
20:07:48:22
16:21:45:22
19:57:39:03
06:59:40:08
14:29:18:23
00:52:24:06
08:37:06:03
05:33:44:05
20:08:35:05
23:02:38:19
23:30:39:01
23:57:35:18
18:18:08:21
06:00:13:05
03:33:01:18
14:45:58:20
21:56:45:05
08:56:00:20
18:58:54:08
16:42:28:19
10:33:46:23
23:13:08:11
00:56:44:06
11:38:25:21
14:01:17:06
01:25:09:01
18:16:39:10
01:58:58:04
18:03:04:09
20:30:21:04
16:17:17:21
07:21:39:07
03:22:48:16
18:00:06:20
04:33:38:20
17:43:27:23
15:36:03:21
05:45:13:03
20:04:05:07
17:21:57:00
01:58:32:03
22:46:15:08
17:44:49:14
03:06:34:22
07:38:33:20
13:08:25:07
13:54:36:19
16:51:17:19
15:43:32:01
02:08:43:18
20:03:00:22
11:09:31:14
23:02:30:05
00:01:50:12
21:06:40:22
11:40:40:23
00:45:19:07
16:00:00:00
19:01:38:23
14:17:09:00
23:35:29:13
22:09:02:20
17:51:00:17
06:50:42:13
05:45:05:04
21:33:35:13
01:45:32:10
22:47:50:20
16:11:03:23
01:04:36:04
05:45:03:14
22:20:20:08
14:33:16:20
22:57:43:17
23:25:22:22
03:06:21:16
03:25:22:20
13:27:11:02
00:44:52:07
22:44:35:19
22:20:33:21
12:42:11:06
21:29:35:20
05:18:20:23
13:49:52:19
23:49:03:02
01:09:01:20
08:30:28:21
23:06:52:20
21:01:32:06
23:27:07:22
23:29:25:02
03:26:53:16
21:13:32:20
20:23:28:22
00:53:22:20
21:04:53:21
23:42:58:07
09:21:42:20
23:10:05:22
14:41:02:06
07:01:12:20
23:51:18:18
21:58:52:14
22:32:19:16
18:12:57:07
12:02:22:21
20:59:32:19
03:06:59:07
21:25:59:20
08:10:28:21
11:24:01:01
16:25:34:13
21:03:03:06
12:24:25:19
10:00:58:21
16:29:11:09
20:58:05:17
01:31:42:18
15:40:23:18
15:16:07:13
21:00:25:05
17:35:32:20
05:44:36:23
13:17:02:13
05:11:21:12
08:01:16:21
22:59:51:03
23:08:20:03
12:58:54:16
15:32:44:11
03:14:30:19
00:10:01:17
10:28:11:07
02:14:34:21
20:04:40:01
21:07:48:04
12:34:18:20
23:18:52:07
20:14:22:06
05:23:30:23
01:43:38:08
07:53:45:22
20:32:50:22
13:20:51:23
21:15:42:06
12:43:34:20
22:37:50:11
21:30:07:22
03:36:25:10
23:44:46:23
20:38:30:17
18:55:50:08
22:51:23:23
03:21:13:22
10:02:28:14
08:10:17:05
22:55:24:22
23:55:16:10
11:38:13:20
06:20:33:04
06:07:58:18
04:40:34:22
07:47:17:09
18:17:35:22
16:40:13:22
22:38:31:22
19:07:46:12
00:16:13:15
22:20:59:15
17:37:41:03
07:27:22:22
16:36:25:06
20:12:48:06
23:08:39:12
02:15:07:20
21:27:27:20
15:34:20:20
21:49:57:09
20:29:16:01
19:44:01:19
15:46:37:21
14:41:19:23
22:39:54:09
03:01:23:13
01:20:02:11
12:24:09:22
23:42:57:21
22:25:03:22
00:35:55:14
22:22:53:00
10:14:54:23
20:42:05:01
20:28:09:07
11:40:47:01
07:54:04:04
22:47:15:06
09:44:37:20
22:23:59:20
13:11:44:17
13:12:36:21
02:07:29:01
12:59:26:10
22:00:57:03
07:06:51:07
05:47:54:20
10:05:01:13
02:53:29:21
16:45:14:19
00:27:59:18
04:35:30:20
03:15:47:17
01:23:01:23
12:29:34:23
04:03:42:15
11:37:37:13
00:54:58:00
11:52:50:08
08:28:28:23
17:18:25:13
09:58:53:09
01:32:51:21
01:13:23:16
08:15:14:17
16:44:57:12
10:40:38:22
15:23:38:12
08:10:28:19
22:18:06:06
00:50:17:11
13:41:19:17
18:18:49:18
04:55:33:12
02:22:09:05
21:29:08:11
11:59:36:05
12:06:38:23
05:40:05:06
16:48:27:21
22:57:44:14
05:23:05:02
22:09:24:09
08:48:36:19
19:00:19:08
22:00:04:09
01:09:17:16
13:08:26:22
07:50:40:20
00:53:04:13
14:51:57:06
07:04:08:09
21:35:21:09
17:02:54:12
19:20:41:22
20:26:07:17
22:18:53:22
12:04:04:10
03:08:33:20
08:30:27:14
00:47:58:22
22:30:48:11
08:33:59:14
10:27:11:04
10:20:54:00
11:30:03:23
02:43:38:22
13:27:59:00
04:47:24:04
17:37:02:05
21:52:14:12
07:06:54:17
22:38:52:12
01:12:35:05
07:53:20:23
20:42:24:20
21:14:00:08
15:59:50:07
08:31:02:22
16:50:56:18
05:32:46:15
13:31:19:22
03:51:47:04
20:26:41:23
23:07:14:04
20:17:35:04
13:58:42:22
01:47:52:20
04:17:33:21
21:27:59:21
04:57:00:19
22:45:58:20
23:56:18:20
21:01:10:07
13:59:19:19
14:00:30:00
08:00:40:21
11:04:05:21
06:11:14:19
23:10:24:15
01:10:35:14
21:39:42:11
11:36:09:16
23:38:07:04
18:32:54:13
06:07:41:14
00:23:14:05
16:08:29:10
02:48:47:01
04:33:37:13
20:14:05:23
03:00:23:04
22:39:28:22
19:48:39:21
19:57:57:12
16:15:11:11
06:58:38:20
20:26:58:10
07:38:56:10
13:42:08:20
23:07:30:23
08:27:58:15
20:35:50:22
08:23:29:06
06:50:18:22
06:02:39:20
02:46:06:19
03:38:54:23
10:00:41:00
03:39:49:00
15:43:22:10
04:57:09:17
05:09:56:22
01:46:04:21
16:43:40:17
11:38:45:15
19:36:21:18
07:20:18:02
04:00:43:20
23:39:25:22
19:46:18:03
23:12:37:22
06:16:23:14
21:50:21:11
20:00:58:03
07:11:40:15
08:32:39:16
03:35:43:19
18:41:22:09
08:23:19:18
23:07:06:03
18:09:00:09
20:03:37:20
21:29:43:17
23:04:16:13
21:43:18:00
20:36:13:09
20:47:08:09
22:07:57:14
17:12:12:21
06:19:34:21
03:56:11:09
02:09:22:19
20:25:42:10
22:07:29:10
14:59:15:11
09:17:40:23
06:52:06:09
14:19:53:00
03:48:30:20
18:07:22:17
10:13:54:06
03:33:42:19
01:00:18:14
05:56:26:22
21:47:06:04
13:49:45:23
11:16:53:05
20:56:59:23
10:26:13:23
01:09:51:08
23:46:10:20
12:10:05:10
02:01:11:19
02:20:37:12
01:22:52:19
17:50:19:15
14:14:15:17
09:03:57:09
20:19:20:20
00:08:11:17
13:10:12:01
06:02:04:21
20:15:09:12
05:28:34:22
21:07:15:06
05:18:54:22
13:15:20:11
12:43:07:22
23:40:28:03
20:05:26:20
23:05:34:09
20:36:51:19
13:01:52:14
18:21:51:17
03:08:10:06
23:05:44:02
23:08:54:17
01:22:53:07
21:38:22:15
20:47:57:14
16:45:31:07
01:41:31:00
19:47:03:09
19:25:50:03
17:57:07:20
10:47:17:06
22:17:42:07
09:16:39:00
16:53:28:21
13:50:10:16
20:31:26:17
16:11:42:16
07:23:50:22
05:49:44:08
00:08:17:12
05:56:37:11
21:20:26:20
20:13:59:05
23:47:22:13
21:52:07:21
21:00:03:23
13:44:04:22
21:31:43:22
23:16:57:14
01:14:44:20
22:22:49:18
10:56:44:21
20:48:37:17
02:24:09:18
18:26:56:12
17:51:18:20
22:05:34:23
21:49:16:19
17:06:44:06
23:42:48:23
19:08:55:12
21:01:01:11
11:44:07:23
15:33:01:23
13:19:41:22
18:54:43:23
06:20:25:20
10:36:34:11
22:45:30:18
04:33:55:00
02:18:40:04
04:09:55:03
14:26:55:20
09:51:59:02
21:06:00:23
23:05:54:00
14:01:32:20
22:46:51:21
16:43:44:11
19:10:14:20
01:22:37:07
05:27:35:20
22:03:40:21
20:48:22:16
22:53:15:12
20:13:20:05
21:10:00:14
09:46:22:21
23:11:12:22
03:25:00:13
21:37:20:01
17:16:27:18
03:28:00:11
22:18:02:23
20:53:59:21
17:49:58:20
08:42:41:06
21:44:27:13
14:18:57:02
18:15:01:13
20:01:16:23
08:10:36:22
15:06:05:07
20:26:10:00
05:20:22:03
22:55:59:22
21:52:59:17
01:06:51:07
20:21:51:08
20:57:13:21
08:47:13:07
23:02:24:03
19:59:21:17
19:26:16:09
22:28:37:21
23:48:23:22
08:42:58:02
02:37:59:20
11:23:23:23
14:05:35:00
05:11:01:16
16:34:12:22
13:18:24:21
03:06:25:18
05:05:44:18
16:37:21:12
19:42:08:20
10:55:23:04
13:19:16:23
07:24:34:17
06:45:16:20
07:08:40:21
11:37:56:01
04:12:41:07
20:09:32:00
14:47:38:13
09:26:40:05
21:11:29:18
13:29:55:23
19:24:26:20
19:53:20:13
20:13:35:02
07:13:26:12
03:37:24:19
23:05:29:21
21:10:33:04
22:50:32:11
18:02:13:15
08:09:37:15
05:30:23:13
23:14:14:22
13:48:27:23
18:27:22:12
13:07:54:09
21:13:44:02
05:28:51:21
09:30:24:21
21:35:31:02
17:49:26:12
01:48:29:07
11:53:26:03
22:31:21:01
18:40:53:17
16:37:20:07
21:19:59:22
14:34:47:22
07:08:05:22
15:37:45:21
04:28:00:07
01:58:21:04
03:01:32:17
18:29:39:20
20:48:23:05
01:58:09:22
23:58:12:14
21:23:54:02
20:34:58:08
17:51:43:12
19:49:00:07
07:32:51:20
07:23:45:12
20:26:40:05
23:54:07:08
12:54:51:22
08:58:39:22
22:52:09:12
01:02:52:15
02:18:29:22
17:16:16:13
15:18:17:23
21:32:18:23
03:52:29:23
06:57:51:22
09:48:31:06
04:44:17:23
23:06:02:14
08:14:34:11
09:04:04:03
02:17:27:17
10:27:19:23
22:55:28:12
14:39:20:22
21:56:13:21
23:25:58:22
06:15:50:20
06:11:03:21
07:44:39:20
22:16:27:21
20:39:22:20
04:38:57:15
03:57:39:22
20:20:48:22
22:16:56:23
23:07:08:23
21:19:10:09
00:30:52:15
13:40:17:21
00:11:59:21
22:08:59:13
19:19:00:12
11:29:43:08
01:57:33:20
13:08:01:17
22:48:49:12
01:35:36:20
16:19:12:18
19:37:43:10
08:05:47:21
15:14:17:09
22:42:11:16
17:07:37:21
01:32:08:23
01:06:48:20
14:53:26:13
04:45:32:14
15:14:58:00
23:11:52:14
17:36:42:08
18:22:06:20
21:34:14:17
22:01:28:19
14:05:26:02
23:04:37:07
09:41:46:23
08:16:09:20
03:48:09:17
11:01:36:12
20:59:14:12
23:14:53:14
09:55:29:20
23:41:10:03
06:22:10:21
18:04:15:20
11:51:25:04
12:17:21:21
23:21:17:17
06:04:45:12
03:56:41:02
09:50:32:12
01:02:22:14
08:19:47:23
22:09:45:13
20:30:49:22
22:38:54:06
15:05:09:12
18:09:39:16
01:21:36:15
23:09:18:00
21:46:46:22
00:06:56:20
11:52:05:21
06:02:47:20
12:35:12:11
05:17:37:14
16:56:45:15
10:26:20:05
21:49:28:03
05:48:15:22
13:03:06:19
03:32:39:18
10:31:47:16
16:48:16:22
16:01:52:09
23:20:29:03
20:31:50:23
06:05:30:19
13:05:11:00
04:08:08:16
23:16:48:16
08:12:39:06
16:56:26:03
00:20:06:20
18:54:24:19
14:12:40:15
00:49:03:08
12:45:44:23
01:40:35:19
03:01:32:17
00:23:23:17
22:19:28:20
02:07:59:09
07:06:31:18
11:24:50:04
20:19:31:21
00:16:28:20
07:53:42:07
16:21:59:21
19:31:45:20
03:19:59:22
18:27:50:21
07:29:56:20
15:06:33:14
05:08:34:11
20:18:49:09
16:34:24:10
14:33:13:08
16:02:07:03
01:38:50:11
14:38:39:20
09:37:41:21
11:08:00:13
20:16:25:08
19:06:27:21
23:19:34:22
08:52:45:12
23:50:19:16
14:53:22:01
20:15:02:02
04:28:00:03
21:50:04:08
21:02:14:05
08:24:58:00
21:11:54:23
22:35:26:16
08:28:52:00
13:12:12:13
14:32:40:21
06:40:33:20
22:33:10:05
09:17:49:21
21:03:42:04
10:58:43:23
19:51:57:19
22:36:09:14
20:08:51:00
01:29:51:07
21:55:47:12
23:04:59:08
21:39:54:23
23:01:33:08
22:57:28:19
23:41:39:09
20:27:11:07
22:54:24:23
03:12:32:16
21:43:24:18
23:04:47:00
10:03:52:19
07:40:43:01
10:33:00:01
18:34:01:21
15:07:14:18
20:35:16:20
23:15:44:06
15:39:07:20
03:24:25:03
21:10:20:04
06:32:25:21
19:25:23:21
20:41:37:03
22:42:16:15
13:35:43:21
20:44:40:21
12:53:06:23
11:00:19:15
22:46:48:23
23:04:53:23
22:12:49:01
18:50:20:13
16:09:12:03
09:26:20:05
23:44:15:01
19:22:39:03
13:37:35:21
23:18:41:13
02:29:00:07
14:02:57:13
16:43:25:18
22:44:35:01
21:47:49:15
18:01:18:23
23:12:05:22
21:34:29:23
16:30:44:19
23:58:26:08
01:09:55:08
20:50:16:14
22:15:34:15
20:23:22:14
15:22:17:02
21:25:31:08
00:43:52:18
13:33:20:19
21:04:34:19
21:51:16:10
20:29:13:13
13:48:18:01
04:14:57:14
08:07:36:10
12:38:40:00
19:34:31:10
01:35:21:04
23:16:45:21
00:13:34:22
10:22:23:23
20:48:55:23
01:17:48:12
05:22:56:22
08:54:13:07
21:55:10:17
16:15:24:18
23:09:34:10
03:15:10:21
08:14:22:03
15:25:18:19
22:56:55:20
11:19:49:16
07:52:02:07
05:29:22:14
14:49:42:21
20:37:45:14
00:33:21:18
23:51:23:03
11:50:16:20
21:06:41:04
15:26:42:19
21:40:29:08
18:44:43:05
00:42:40:16
20:24:33:17
12:42:33:19
08:50:56:10
09:08:50:06
17:44:16:18
00:11:17:23
11:37:48:20
12:57:16:03
23:39:38:11
21:47:52:04
19:26:10:02
20:15:00:08
22:03:05:07
23:29:32:09
08:32:32:18
04:57:12:20
20:05:34:03
20:34:44:20
09:06:37:20
01:14:11:20
00:31:42:21
18:53:13:11
10:12:00:10
21:08:51:03
21:17:12:10
20:02:43:04
07:38:36:09
05:15:15:20
03:54:16:22
23:27:53:07
23:35:38:09
22:46:23:20
02:05:08:22
20:50:34:07
11:27:33:21
17:53:04:15
10:11:22:20
08:35:40:21
23:03:01:12
03:47:33:15
00:06:06:02
10:30:11:02
21:25:26:20
23:49:38:10
01:27:48:20
23:28:14:07
01:01:07:23
17:02:38:18
16:20:39:21
07:35:55:16
07:20:42:18
04:56:35:23
22:42:21:02
03:28:51:14
05:23:46:11
10:09:08:08
23:42:09:14
20:35:07:06
22:49:04:05
18:23:07:02
23:32:44:18
13:50:33:21
23:07:33:16
21:40:22:03
12:44:50:01
06:31:02:16
13:47:37:08
23:41:22:18
04:02:42:06
21:05:45:18
22:32:21:20
04:57:02:06
03:53:20:09
05:30:22:20
20:55:13:02
12:05:47:09
22:06:33:04
05:30:09:12
03:53:58:05
12:43:03:15
06:49:21:13
17:54:21:18
21:57:42:12
21:46:45:09
06:18:53:10
05:31:38:06
23:45:08:11
14:06:16:00
18:53:00:18
12:19:34:12
06:41:20:21
00:04:37:14
05:26:53:23
23:52:42:22
14:02:29:20
04:23:08:03
10:00:20:05
20:17:25:21
23:00:54:22
21:23:19:15
13:21:03:01
06:08:06:20
23:09:46:01
20:04:12:12
13:12:45:01
21:45:18:22
16:38:00:22
11:02:36:14
20:57:49:02
06:20:49:08
13:00:49:21
01:24:30:21
00:52:06:10
03:49:16:13
12:53:44:16
01:12:42:17
01:54:01:14
23:22:56:04
22:42:38:19
05:46:54:19
21:41:06:12
22:03:27:00
21:05:29:01
13:05:50:21
21:12:22:10
10:24:42:20
23:14:17:00
21:23:27:23
13:57:54:10
11:25:40:20
09:00:39:02
08:01:54:05
12:15:48:20
19:41:16:07
19:24:38:08
23:45:26:06
14:26:27:16
13:06:39:18
04:09:34:16
00:30:11:09
03:01:47:15
21:11:19:09
20:51:17:20
06:45:48:23
14:27:31:05
10:11:03:22
12:33:05:20
01:32:56:17
23:59:47:06
07:16:06:20
23:59:29:20
17:18:51:15
00:13:21:12
17:15:09:04
03:49:57:21
20:24:01:14
21:22:28:17
21:07:19:05
03:18:01:10
22:54:14:20
00:48:40:06
21:51:36:20
20:49:09:17
01:32:00:18
10:36:45:19
20:16:40:20
17:40:44:09
06:24:31:09
07:51:18:15
05:10:47:22
18:46:29:04
15:45:49:20
18:00:04:22
14:28:54:23
06:32:06:02
16:01:52:09
02:21:39:19
12:09:46:15
08:30:53:18
18:08:36:22
13:20:32:13
18:58:21:00
18:43:21:18
12:39:37:00
17:07:16:20
20:07:33:20
15:44:08:22
10:37:45:23
05:25:23:20
08:08:49:08
20:26:23:21
01:19:04:04